RNG_Jingtian/simulation/qsim/RNG.msim.vcd
$comment
	File created using the following command:
		vcd file RNG.msim.vcd -direction
$end
$date
	Sun Feb 12 17:59:02 2023
$end
$version
	ModelSim Version 2020.1
$end
$timescale
	1ps
$end

$scope module RNG_vlg_vec_tst $end
$var reg 1 ! CLOCK_50 $end
$var reg 1 " reset $end
$var wire 1 # LED $end
$var wire 1 $ f $end
$var wire 1 % sample_clk $end

$scope module i1 $end
$var wire 1 & gnd $end
$var wire 1 ' vcc $end
$var wire 1 ( unknown $end
$var tri1 1 ) devclrn $end
$var tri1 1 * devpor $end
$var tri1 1 + devoe $end
$var wire 1 , ~QUARTUS_CREATED_GND~I_combout $end
$var wire 1 - CLOCK_50~input_o $end
$var wire 1 . CLOCK_50~inputCLKENA0_outclk $end
$var wire 1 / reset~input_o $end
$var wire 1 0 reg1~0_combout $end
$var wire 1 1 reg1~q $end
$var wire 1 2 reg2~0_combout $end
$var wire 1 3 reg2~q $end
$var wire 1 4 ippll_inst|altera_pll_i|general[0].gpll~PLL_REFCLK_SELECT_O_EXTSWITCHBUF $end
$var wire 1 5 ippll_inst|altera_pll_i|general[0].gpll~PLL_REFCLK_SELECT_O_CLKOUT $end
$var wire 1 6 ippll_inst|altera_pll_i|general[0].gpll~FRACTIONAL_PLL_O_MHI2 $end
$var wire 1 7 ippll_inst|altera_pll_i|general[0].gpll~FRACTIONAL_PLL_O_MHI3 $end
$var wire 1 8 ippll_inst|altera_pll_i|general[0].gpll~FRACTIONAL_PLL_O_MHI4 $end
$var wire 1 9 ippll_inst|altera_pll_i|general[0].gpll~FRACTIONAL_PLL_O_MHI5 $end
$var wire 1 : ippll_inst|altera_pll_i|general[0].gpll~FRACTIONAL_PLL_O_MHI6 $end
$var wire 1 ; ippll_inst|altera_pll_i|general[0].gpll~FRACTIONAL_PLL_O_MHI7 $end
$var wire 1 < ippll_inst|altera_pll_i|general[0].gpll~PLL_RECONFIG_O_UP $end
$var wire 1 = ippll_inst|altera_pll_i|general[0].gpll~FRACTIONAL_PLL_O_MHI1 $end
$var wire 1 > ippll_inst|altera_pll_i|general[0].gpll~PLL_RECONFIG_O_SHIFTENM $end
$var wire 1 ? ippll_inst|altera_pll_i|general[0].gpll~FRACTIONAL_PLL_O_MHI0 $end
$var wire 1 @ ippll_inst|altera_pll_i|general[0].gpll~PLL_RECONFIG_O_SHIFT $end
$var wire 1 A ippll_inst|altera_pll_i|general[0].gpll~FRACTIONAL_PLL_O_CNTNEN $end
$var wire 1 B ippll_inst|altera_pll_i|general[0].gpll~PLL_RECONFIG_O_SHIFTEN0 $end
$var wire 1 C ippll_inst|altera_pll_i|general[0].gpll~FRACTIONAL_PLL_O_TCLK $end
$var wire 1 D ippll_inst|altera_pll_i|general[0].gpll~FRACTIONAL_PLL_O_VCOPH0 $end
$var wire 1 E ippll_inst|altera_pll_i|general[0].gpll~FRACTIONAL_PLL_O_VCOPH1 $end
$var wire 1 F ippll_inst|altera_pll_i|general[0].gpll~FRACTIONAL_PLL_O_VCOPH2 $end
$var wire 1 G ippll_inst|altera_pll_i|general[0].gpll~FRACTIONAL_PLL_O_VCOPH3 $end
$var wire 1 H ippll_inst|altera_pll_i|general[0].gpll~FRACTIONAL_PLL_O_VCOPH4 $end
$var wire 1 I ippll_inst|altera_pll_i|general[0].gpll~FRACTIONAL_PLL_O_VCOPH5 $end
$var wire 1 J ippll_inst|altera_pll_i|general[0].gpll~FRACTIONAL_PLL_O_VCOPH6 $end
$var wire 1 K ippll_inst|altera_pll_i|general[0].gpll~FRACTIONAL_PLL_O_VCOPH7 $end
$var wire 1 L ippll_inst|altera_pll_i|outclk_wire[0]~CLKENA0_outclk $end
$var wire 1 M ippll_inst|altera_pll_i|fboutclk_wire [0] $end
$var wire 1 N ippll_inst|altera_pll_i|outclk_wire [0] $end
$var wire 1 O ippll_inst|altera_pll_i|general[0].gpll~FRACTIONAL_PLL_VCOPH_bus [7] $end
$var wire 1 P ippll_inst|altera_pll_i|general[0].gpll~FRACTIONAL_PLL_VCOPH_bus [6] $end
$var wire 1 Q ippll_inst|altera_pll_i|general[0].gpll~FRACTIONAL_PLL_VCOPH_bus [5] $end
$var wire 1 R ippll_inst|altera_pll_i|general[0].gpll~FRACTIONAL_PLL_VCOPH_bus [4] $end
$var wire 1 S ippll_inst|altera_pll_i|general[0].gpll~FRACTIONAL_PLL_VCOPH_bus [3] $end
$var wire 1 T ippll_inst|altera_pll_i|general[0].gpll~FRACTIONAL_PLL_VCOPH_bus [2] $end
$var wire 1 U ippll_inst|altera_pll_i|general[0].gpll~FRACTIONAL_PLL_VCOPH_bus [1] $end
$var wire 1 V ippll_inst|altera_pll_i|general[0].gpll~FRACTIONAL_PLL_VCOPH_bus [0] $end
$var wire 1 W ippll_inst|altera_pll_i|general[0].gpll~FRACTIONAL_PLL_MHI_bus [7] $end
$var wire 1 X ippll_inst|altera_pll_i|general[0].gpll~FRACTIONAL_PLL_MHI_bus [6] $end
$var wire 1 Y ippll_inst|altera_pll_i|general[0].gpll~FRACTIONAL_PLL_MHI_bus [5] $end
$var wire 1 Z ippll_inst|altera_pll_i|general[0].gpll~FRACTIONAL_PLL_MHI_bus [4] $end
$var wire 1 [ ippll_inst|altera_pll_i|general[0].gpll~FRACTIONAL_PLL_MHI_bus [3] $end
$var wire 1 \ ippll_inst|altera_pll_i|general[0].gpll~FRACTIONAL_PLL_MHI_bus [2] $end
$var wire 1 ] ippll_inst|altera_pll_i|general[0].gpll~FRACTIONAL_PLL_MHI_bus [1] $end
$var wire 1 ^ ippll_inst|altera_pll_i|general[0].gpll~FRACTIONAL_PLL_MHI_bus [0] $end
$var wire 1 _ ippll_inst|altera_pll_i|general[0].gpll~PLL_RECONFIG_SHIFTEN_bus [8] $end
$var wire 1 ` ippll_inst|altera_pll_i|general[0].gpll~PLL_RECONFIG_SHIFTEN_bus [7] $end
$var wire 1 a ippll_inst|altera_pll_i|general[0].gpll~PLL_RECONFIG_SHIFTEN_bus [6] $end
$var wire 1 b ippll_inst|altera_pll_i|general[0].gpll~PLL_RECONFIG_SHIFTEN_bus [5] $end
$var wire 1 c ippll_inst|altera_pll_i|general[0].gpll~PLL_RECONFIG_SHIFTEN_bus [4] $end
$var wire 1 d ippll_inst|altera_pll_i|general[0].gpll~PLL_RECONFIG_SHIFTEN_bus [3] $end
$var wire 1 e ippll_inst|altera_pll_i|general[0].gpll~PLL_RECONFIG_SHIFTEN_bus [2] $end
$var wire 1 f ippll_inst|altera_pll_i|general[0].gpll~PLL_RECONFIG_SHIFTEN_bus [1] $end
$var wire 1 g ippll_inst|altera_pll_i|general[0].gpll~PLL_RECONFIG_SHIFTEN_bus [0] $end
$upscope $end
$upscope $end
$enddefinitions $end
#0
$dumpvars
0!
1"
1#
0$
0%
0&
1'
x(
1)
1*
1+
0,
0-
0.
1/
00
01
02
03
z4
05
z6
z7
z8
z9
z:
z;
x<
z=
x>
z?
x@
zA
xB
zC
0D
0E
0F
0G
1H
1I
1J
1K
0L
0M
0N
0V
0U
0T
0S
1R
1Q
1P
1O
z^
z]
z\
z[
zZ
zY
zX
zW
xg
xf
xe
xd
xc
xb
xa
x`
x_
$end
#10000
1!
1-
1.
15
#20000
0!
0-
0.
05
#30000
1!
1-
1.
15
#40000
0!
0-
0.
05
#50000
1!
1-
1.
15
#60000
0"
0!
0/
0-
0.
05
10
#70000
1!
1-
1.
15
11
1M
12
0R
1V
0H
1D
1N
1L
1%
#70250
0Q
1U
0I
1E
#70500
0P
1T
0J
1F
#70750
0O
1S
0K
1G
#71000
1R
0V
1H
0D
0N
0L
0%
#71250
1Q
0U
1I
0E
#71500
1P
0T
1J
0F
#71750
1O
0S
1K
0G
#72000
0R
1V
0H
1D
1N
1L
1%
#72250
0Q
1U
0I
1E
#72500
0P
1T
0J
1F
#72750
0O
1S
0K
1G
#73000
1R
0V
1H
0D
0N
0L
0%
#73250
1Q
0U
1I
0E
#73500
1P
0T
1J
0F
#73750
1O
0S
1K
0G
#74000
0R
1V
0H
1D
1N
1L
1%
#74250
0Q
1U
0I
1E
#74500
0P
1T
0J
1F
#74750
0O
1S
0K
1G
#75000
1R
0V
1H
0D
0N
0L
0%
#75250
1Q
0U
1I
0E
#75500
1P
0T
1J
0F
#75750
1O
0S
1K
0G
#76000
0R
1V
0H
1D
1N
1L
1%
#76250
0Q
1U
0I
1E
#76500
0P
1T
0J
1F
#76750
0O
1S
0K
1G
#77000
1R
0V
1H
0D
0N
0L
0%
#77250
1Q
0U
1I
0E
#77500
1P
0T
1J
0F
#77750
1O
0S
1K
0G
#78000
0R
1V
0H
1D
1N
1L
1%
#78250
0Q
1U
0I
1E
#78500
0P
1T
0J
1F
#78750
0O
1S
0K
1G
#79000
1R
0V
1H
0D
0N
0L
0%
#79250
1Q
0U
1I
0E
#79500
1P
0T
1J
0F
#79750
1O
0S
1K
0G
#80000
0!
0R
1V
0H
1D
0-
0.
05
0M
1N
1L
1%
#80250
0Q
1U
0I
1E
#80500
0P
1T
0J
1F
#80750
0O
1S
0K
1G
#81000
1R
0V
1H
0D
0N
0L
0%
#81250
1Q
0U
1I
0E
#81500
1P
0T
1J
0F
#81750
1O
0S
1K
0G
#82000
0R
1V
0H
1D
1N
1L
1%
#82250
0Q
1U
0I
1E
#82500
0P
1T
0J
1F
#82750
0O
1S
0K
1G
#83000
1R
0V
1H
0D
0N
0L
0%
#83250
1Q
0U
1I
0E
#83500
1P
0T
1J
0F
#83750
1O
0S
1K
0G
#84000
0R
1V
0H
1D
1N
1L
1%
#84250
0Q
1U
0I
1E
#84500
0P
1T
0J
1F
#84750
0O
1S
0K
1G
#85000
1R
0V
1H
0D
0N
0L
0%
#85250
1Q
0U
1I
0E
#85500
1P
0T
1J
0F
#85750
1O
0S
1K
0G
#86000
0R
1V
0H
1D
1N
1L
1%
#86250
0Q
1U
0I
1E
#86500
0P
1T
0J
1F
#86750
0O
1S
0K
1G
#87000
1R
0V
1H
0D
0N
0L
0%
#87250
1Q
0U
1I
0E
#87500
1P
0T
1J
0F
#87750
1O
0S
1K
0G
#88000
0R
1V
0H
1D
1N
1L
1%
#88250
0Q
1U
0I
1E
#88500
0P
1T
0J
1F
#88750
0O
1S
0K
1G
#89000
1R
0V
1H
0D
0N
0L
0%
#89250
1Q
0U
1I
0E
#89500
1P
0T
1J
0F
#89750
1O
0S
1K
0G
#90000
1!
1-
1.
15
1M
13
0R
1V
1$
0H
1D
1N
1L
1%
#90250
0Q
1U
0I
1E
#90500
0P
1T
0J
1F
#90750
0O
1S
0K
1G
#91000
1R
0V
1H
0D
0N
0L
0%
#91250
1Q
0U
1I
0E
#91500
1P
0T
1J
0F
#91750
1O
0S
1K
0G
#92000
0R
1V
0H
1D
1N
1L
1%
#92250
0Q
1U
0I
1E
#92500
0P
1T
0J
1F
#92750
0O
1S
0K
1G
#93000
1R
0V
1H
0D
0N
0L
0%
#93250
1Q
0U
1I
0E
#93500
1P
0T
1J
0F
#93750
1O
0S
1K
0G
#94000
0R
1V
0H
1D
1N
1L
1%
#94250
0Q
1U
0I
1E
#94500
0P
1T
0J
1F
#94750
0O
1S
0K
1G
#95000
1R
0V
1H
0D
0N
0L
0%
#95250
1Q
0U
1I
0E
#95500
1P
0T
1J
0F
#95750
1O
0S
1K
0G
#96000
0R
1V
0H
1D
1N
1L
1%
#96250
0Q
1U
0I
1E
#96500
0P
1T
0J
1F
#96750
0O
1S
0K
1G
#97000
1R
0V
1H
0D
0N
0L
0%
#97250
1Q
0U
1I
0E
#97500
1P
0T
1J
0F
#97750
1O
0S
1K
0G
#98000
0R
1V
0H
1D
1N
1L
1%
#98250
0Q
1U
0I
1E
#98500
0P
1T
0J
1F
#98750
0O
1S
0K
1G
#99000
1R
0V
1H
0D
0N
0L
0%
#99250
1Q
0U
1I
0E
#99500
1P
0T
1J
0F
#99750
1O
0S
1K
0G
#100000
0!
0R
1V
0H
1D
0-
0.
05
0M
1N
1L
1%
#100250
0Q
1U
0I
1E
#100500
0P
1T
0J
1F
#100750
0O
1S
0K
1G
#101000
1R
0V
1H
0D
0N
0L
0%
#101250
1Q
0U
1I
0E
#101500
1P
0T
1J
0F
#101750
1O
0S
1K
0G
#102000
0R
1V
0H
1D
1N
1L
1%
#102250
0Q
1U
0I
1E
#102500
0P
1T
0J
1F
#102750
0O
1S
0K
1G
#103000
1R
0V
1H
0D
0N
0L
0%
#103250
1Q
0U
1I
0E
#103500
1P
0T
1J
0F
#103750
1O
0S
1K
0G
#104000
0R
1V
0H
1D
1N
1L
1%
#104250
0Q
1U
0I
1E
#104500
0P
1T
0J
1F
#104750
0O
1S
0K
1G
#105000
1R
0V
1H
0D
0N
0L
0%
#105250
1Q
0U
1I
0E
#105500
1P
0T
1J
0F
#105750
1O
0S
1K
0G
#106000
0R
1V
0H
1D
1N
1L
1%
#106250
0Q
1U
0I
1E
#106500
0P
1T
0J
1F
#106750
0O
1S
0K
1G
#107000
1R
0V
1H
0D
0N
0L
0%
#107250
1Q
0U
1I
0E
#107500
1P
0T
1J
0F
#107750
1O
0S
1K
0G
#108000
0R
1V
0H
1D
1N
1L
1%
#108250
0Q
1U
0I
1E
#108500
0P
1T
0J
1F
#108750
0O
1S
0K
1G
#109000
1R
0V
1H
0D
0N
0L
0%
#109250
1Q
0U
1I
0E
#109500
1P
0T
1J
0F
#109750
1O
0S
1K
0G
#110000
1!
1-
1.
15
1M
0R
1V
0H
1D
1N
1L
1%
#110250
0Q
1U
0I
1E
#110500
0P
1T
0J
1F
#110750
0O
1S
0K
1G
#111000
1R
0V
1H
0D
0N
0L
0%
#111250
1Q
0U
1I
0E
#111500
1P
0T
1J
0F
#111750
1O
0S
1K
0G
#112000
0R
1V
0H
1D
1N
1L
1%
#112250
0Q
1U
0I
1E
#112500
0P
1T
0J
1F
#112750
0O
1S
0K
1G
#113000
1R
0V
1H
0D
0N
0L
0%
#113250
1Q
0U
1I
0E
#113500
1P
0T
1J
0F
#113750
1O
0S
1K
0G
#114000
0R
1V
0H
1D
1N
1L
1%
#114250
0Q
1U
0I
1E
#114500
0P
1T
0J
1F
#114750
0O
1S
0K
1G
#115000
1R
0V
1H
0D
0N
0L
0%
#115250
1Q
0U
1I
0E
#115500
1P
0T
1J
0F
#115750
1O
0S
1K
0G
#116000
0R
1V
0H
1D
1N
1L
1%
#116250
0Q
1U
0I
1E
#116500
0P
1T
0J
1F
#116750
0O
1S
0K
1G
#117000
1R
0V
1H
0D
0N
0L
0%
#117250
1Q
0U
1I
0E
#117500
1P
0T
1J
0F
#117750
1O
0S
1K
0G
#118000
0R
1V
0H
1D
1N
1L
1%
#118250
0Q
1U
0I
1E
#118500
0P
1T
0J
1F
#118750
0O
1S
0K
1G
#119000
1R
0V
1H
0D
0N
0L
0%
#119250
1Q
0U
1I
0E
#119500
1P
0T
1J
0F
#119750
1O
0S
1K
0G
#120000
0!
0R
1V
0H
1D
0-
0.
05
0M
1N
1L
1%
#120250
0Q
1U
0I
1E
#120500
0P
1T
0J
1F
#120750
0O
1S
0K
1G
#121000
1R
0V
1H
0D
0N
0L
0%
#121250
1Q
0U
1I
0E
#121500
1P
0T
1J
0F
#121750
1O
0S
1K
0G
#122000
0R
1V
0H
1D
1N
1L
1%
#122250
0Q
1U
0I
1E
#122500
0P
1T
0J
1F
#122750
0O
1S
0K
1G
#123000
1R
0V
1H
0D
0N
0L
0%
#123250
1Q
0U
1I
0E
#123500
1P
0T
1J
0F
#123750
1O
0S
1K
0G
#124000
0R
1V
0H
1D
1N
1L
1%
#124250
0Q
1U
0I
1E
#124500
0P
1T
0J
1F
#124750
0O
1S
0K
1G
#125000
1R
0V
1H
0D
0N
0L
0%
#125250
1Q
0U
1I
0E
#125500
1P
0T
1J
0F
#125750
1O
0S
1K
0G
#126000
0R
1V
0H
1D
1N
1L
1%
#126250
0Q
1U
0I
1E
#126500
0P
1T
0J
1F
#126750
0O
1S
0K
1G
#127000
1R
0V
1H
0D
0N
0L
0%
#127250
1Q
0U
1I
0E
#127500
1P
0T
1J
0F
#127750
1O
0S
1K
0G
#128000
0R
1V
0H
1D
1N
1L
1%
#128250
0Q
1U
0I
1E
#128500
0P
1T
0J
1F
#128750
0O
1S
0K
1G
#129000
1R
0V
1H
0D
0N
0L
0%
#129250
1Q
0U
1I
0E
#129500
1P
0T
1J
0F
#129750
1O
0S
1K
0G
#130000
1!
1-
1.
15
1M
0R
1V
0H
1D
1N
1L
1%
#130250
0Q
1U
0I
1E
#130500
0P
1T
0J
1F
#130750
0O
1S
0K
1G
#131000
1R
0V
1H
0D
0N
0L
0%
#131250
1Q
0U
1I
0E
#131500
1P
0T
1J
0F
#131750
1O
0S
1K
0G
#132000
0R
1V
0H
1D
1N
1L
1%
#132250
0Q
1U
0I
1E
#132500
0P
1T
0J
1F
#132750
0O
1S
0K
1G
#133000
1R
0V
1H
0D
0N
0L
0%
#133250
1Q
0U
1I
0E
#133500
1P
0T
1J
0F
#133750
1O
0S
1K
0G
#134000
0R
1V
0H
1D
1N
1L
1%
#134250
0Q
1U
0I
1E
#134500
0P
1T
0J
1F
#134750
0O
1S
0K
1G
#135000
1R
0V
1H
0D
0N
0L
0%
#135250
1Q
0U
1I
0E
#135500
1P
0T
1J
0F
#135750
1O
0S
1K
0G
#136000
0R
1V
0H
1D
1N
1L
1%
#136250
0Q
1U
0I
1E
#136500
0P
1T
0J
1F
#136750
0O
1S
0K
1G
#137000
1R
0V
1H
0D
0N
0L
0%
#137250
1Q
0U
1I
0E
#137500
1P
0T
1J
0F
#137750
1O
0S
1K
0G
#138000
0R
1V
0H
1D
1N
1L
1%
#138250
0Q
1U
0I
1E
#138500
0P
1T
0J
1F
#138750
0O
1S
0K
1G
#139000
1R
0V
1H
0D
0N
0L
0%
#139250
1Q
0U
1I
0E
#139500
1P
0T
1J
0F
#139750
1O
0S
1K
0G
#140000
0!
0R
1V
0H
1D
0-
0.
05
0M
1N
1L
1%
#140250
0Q
1U
0I
1E
#140500
0P
1T
0J
1F
#140750
0O
1S
0K
1G
#141000
1R
0V
1H
0D
0N
0L
0%
#141250
1Q
0U
1I
0E
#141500
1P
0T
1J
0F
#141750
1O
0S
1K
0G
#142000
0R
1V
0H
1D
1N
1L
1%
#142250
0Q
1U
0I
1E
#142500
0P
1T
0J
1F
#142750
0O
1S
0K
1G
#143000
1R
0V
1H
0D
0N
0L
0%
#143250
1Q
0U
1I
0E
#143500
1P
0T
1J
0F
#143750
1O
0S
1K
0G
#144000
0R
1V
0H
1D
1N
1L
1%
#144250
0Q
1U
0I
1E
#144500
0P
1T
0J
1F
#144750
0O
1S
0K
1G
#145000
1R
0V
1H
0D
0N
0L
0%
#145250
1Q
0U
1I
0E
#145500
1P
0T
1J
0F
#145750
1O
0S
1K
0G
#146000
0R
1V
0H
1D
1N
1L
1%
#146250
0Q
1U
0I
1E
#146500
0P
1T
0J
1F
#146750
0O
1S
0K
1G
#147000
1R
0V
1H
0D
0N
0L
0%
#147250
1Q
0U
1I
0E
#147500
1P
0T
1J
0F
#147750
1O
0S
1K
0G
#148000
0R
1V
0H
1D
1N
1L
1%
#148250
0Q
1U
0I
1E
#148500
0P
1T
0J
1F
#148750
0O
1S
0K
1G
#149000
1R
0V
1H
0D
0N
0L
0%
#149250
1Q
0U
1I
0E
#149500
1P
0T
1J
0F
#149750
1O
0S
1K
0G
#150000
1!
1-
1.
15
1M
0R
1V
0H
1D
1N
1L
1%
#150250
0Q
1U
0I
1E
#150500
0P
1T
0J
1F
#150750
0O
1S
0K
1G
#151000
1R
0V
1H
0D
0N
0L
0%
#151250
1Q
0U
1I
0E
#151500
1P
0T
1J
0F
#151750
1O
0S
1K
0G
#152000
0R
1V
0H
1D
1N
1L
1%
#152250
0Q
1U
0I
1E
#152500
0P
1T
0J
1F
#152750
0O
1S
0K
1G
#153000
1R
0V
1H
0D
0N
0L
0%
#153250
1Q
0U
1I
0E
#153500
1P
0T
1J
0F
#153750
1O
0S
1K
0G
#154000
0R
1V
0H
1D
1N
1L
1%
#154250
0Q
1U
0I
1E
#154500
0P
1T
0J
1F
#154750
0O
1S
0K
1G
#155000
1R
0V
1H
0D
0N
0L
0%
#155250
1Q
0U
1I
0E
#155500
1P
0T
1J
0F
#155750
1O
0S
1K
0G
#156000
0R
1V
0H
1D
1N
1L
1%
#156250
0Q
1U
0I
1E
#156500
0P
1T
0J
1F
#156750
0O
1S
0K
1G
#157000
1R
0V
1H
0D
0N
0L
0%
#157250
1Q
0U
1I
0E
#157500
1P
0T
1J
0F
#157750
1O
0S
1K
0G
#158000
0R
1V
0H
1D
1N
1L
1%
#158250
0Q
1U
0I
1E
#158500
0P
1T
0J
1F
#158750
0O
1S
0K
1G
#159000
1R
0V
1H
0D
0N
0L
0%
#159250
1Q
0U
1I
0E
#159500
1P
0T
1J
0F
#159750
1O
0S
1K
0G
#160000
0!
0R
1V
0H
1D
0-
0.
05
0M
1N
1L
1%
#160250
0Q
1U
0I
1E
#160500
0P
1T
0J
1F
#160750
0O
1S
0K
1G
#161000
1R
0V
1H
0D
0N
0L
0%
#161250
1Q
0U
1I
0E
#161500
1P
0T
1J
0F
#161750
1O
0S
1K
0G
#162000
0R
1V
0H
1D
1N
1L
1%
#162250
0Q
1U
0I
1E
#162500
0P
1T
0J
1F
#162750
0O
1S
0K
1G
#163000
1R
0V
1H
0D
0N
0L
0%
#163250
1Q
0U
1I
0E
#163500
1P
0T
1J
0F
#163750
1O
0S
1K
0G
#164000
0R
1V
0H
1D
1N
1L
1%
#164250
0Q
1U
0I
1E
#164500
0P
1T
0J
1F
#164750
0O
1S
0K
1G
#165000
1R
0V
1H
0D
0N
0L
0%
#165250
1Q
0U
1I
0E
#165500
1P
0T
1J
0F
#165750
1O
0S
1K
0G
#166000
0R
1V
0H
1D
1N
1L
1%
#166250
0Q
1U
0I
1E
#166500
0P
1T
0J
1F
#166750
0O
1S
0K
1G
#167000
1R
0V
1H
0D
0N
0L
0%
#167250
1Q
0U
1I
0E
#167500
1P
0T
1J
0F
#167750
1O
0S
1K
0G
#168000
0R
1V
0H
1D
1N
1L
1%
#168250
0Q
1U
0I
1E
#168500
0P
1T
0J
1F
#168750
0O
1S
0K
1G
#169000
1R
0V
1H
0D
0N
0L
0%
#169250
1Q
0U
1I
0E
#169500
1P
0T
1J
0F
#169750
1O
0S
1K
0G
#170000
1!
1-
1.
15
1M
0R
1V
0H
1D
1N
1L
1%
#170250
0Q
1U
0I
1E
#170500
0P
1T
0J
1F
#170750
0O
1S
0K
1G
#171000
1R
0V
1H
0D
0N
0L
0%
#171250
1Q
0U
1I
0E
#171500
1P
0T
1J
0F
#171750
1O
0S
1K
0G
#172000
0R
1V
0H
1D
1N
1L
1%
#172250
0Q
1U
0I
1E
#172500
0P
1T
0J
1F
#172750
0O
1S
0K
1G
#173000
1R
0V
1H
0D
0N
0L
0%
#173250
1Q
0U
1I
0E
#173500
1P
0T
1J
0F
#173750
1O
0S
1K
0G
#174000
0R
1V
0H
1D
1N
1L
1%
#174250
0Q
1U
0I
1E
#174500
0P
1T
0J
1F
#174750
0O
1S
0K
1G
#175000
1R
0V
1H
0D
0N
0L
0%
#175250
1Q
0U
1I
0E
#175500
1P
0T
1J
0F
#175750
1O
0S
1K
0G
#176000
0R
1V
0H
1D
1N
1L
1%
#176250
0Q
1U
0I
1E
#176500
0P
1T
0J
1F
#176750
0O
1S
0K
1G
#177000
1R
0V
1H
0D
0N
0L
0%
#177250
1Q
0U
1I
0E
#177500
1P
0T
1J
0F
#177750
1O
0S
1K
0G
#178000
0R
1V
0H
1D
1N
1L
1%
#178250
0Q
1U
0I
1E
#178500
0P
1T
0J
1F
#178750
0O
1S
0K
1G
#179000
1R
0V
1H
0D
0N
0L
0%
#179250
1Q
0U
1I
0E
#179500
1P
0T
1J
0F
#179750
1O
0S
1K
0G
#180000
0!
0R
1V
0H
1D
0-
0.
05
0M
1N
1L
1%
#180250
0Q
1U
0I
1E
#180500
0P
1T
0J
1F
#180750
0O
1S
0K
1G
#181000
1R
0V
1H
0D
0N
0L
0%
#181250
1Q
0U
1I
0E
#181500
1P
0T
1J
0F
#181750
1O
0S
1K
0G
#182000
0R
1V
0H
1D
1N
1L
1%
#182250
0Q
1U
0I
1E
#182500
0P
1T
0J
1F
#182750
0O
1S
0K
1G
#183000
1R
0V
1H
0D
0N
0L
0%
#183250
1Q
0U
1I
0E
#183500
1P
0T
1J
0F
#183750
1O
0S
1K
0G
#184000
0R
1V
0H
1D
1N
1L
1%
#184250
0Q
1U
0I
1E
#184500
0P
1T
0J
1F
#184750
0O
1S
0K
1G
#185000
1R
0V
1H
0D
0N
0L
0%
#185250
1Q
0U
1I
0E
#185500
1P
0T
1J
0F
#185750
1O
0S
1K
0G
#186000
0R
1V
0H
1D
1N
1L
1%
#186250
0Q
1U
0I
1E
#186500
0P
1T
0J
1F
#186750
0O
1S
0K
1G
#187000
1R
0V
1H
0D
0N
0L
0%
#187250
1Q
0U
1I
0E
#187500
1P
0T
1J
0F
#187750
1O
0S
1K
0G
#188000
0R
1V
0H
1D
1N
1L
1%
#188250
0Q
1U
0I
1E
#188500
0P
1T
0J
1F
#188750
0O
1S
0K
1G
#189000
1R
0V
1H
0D
0N
0L
0%
#189250
1Q
0U
1I
0E
#189500
1P
0T
1J
0F
#189750
1O
0S
1K
0G
#190000
1!
1-
1.
15
1M
0R
1V
0H
1D
1N
1L
1%
#190250
0Q
1U
0I
1E
#190500
0P
1T
0J
1F
#190750
0O
1S
0K
1G
#191000
1R
0V
1H
0D
0N
0L
0%
#191250
1Q
0U
1I
0E
#191500
1P
0T
1J
0F
#191750
1O
0S
1K
0G
#192000
0R
1V
0H
1D
1N
1L
1%
#192250
0Q
1U
0I
1E
#192500
0P
1T
0J
1F
#192750
0O
1S
0K
1G
#193000
1R
0V
1H
0D
0N
0L
0%
#193250
1Q
0U
1I
0E
#193500
1P
0T
1J
0F
#193750
1O
0S
1K
0G
#194000
0R
1V
0H
1D
1N
1L
1%
#194250
0Q
1U
0I
1E
#194500
0P
1T
0J
1F
#194750
0O
1S
0K
1G
#195000
1R
0V
1H
0D
0N
0L
0%
#195250
1Q
0U
1I
0E
#195500
1P
0T
1J
0F
#195750
1O
0S
1K
0G
#196000
0R
1V
0H
1D
1N
1L
1%
#196250
0Q
1U
0I
1E
#196500
0P
1T
0J
1F
#196750
0O
1S
0K
1G
#197000
1R
0V
1H
0D
0N
0L
0%
#197250
1Q
0U
1I
0E
#197500
1P
0T
1J
0F
#197750
1O
0S
1K
0G
#198000
0R
1V
0H
1D
1N
1L
1%
#198250
0Q
1U
0I
1E
#198500
0P
1T
0J
1F
#198750
0O
1S
0K
1G
#199000
1R
0V
1H
0D
0N
0L
0%
#199250
1Q
0U
1I
0E
#199500
1P
0T
1J
0F
#199750
1O
0S
1K
0G
#200000
0!
0R
1V
0H
1D
0-
0.
05
0M
1N
1L
1%
#200250
0Q
1U
0I
1E
#200500
0P
1T
0J
1F
#200750
0O
1S
0K
1G
#201000
1R
0V
1H
0D
0N
0L
0%
#201250
1Q
0U
1I
0E
#201500
1P
0T
1J
0F
#201750
1O
0S
1K
0G
#202000
0R
1V
0H
1D
1N
1L
1%
#202250
0Q
1U
0I
1E
#202500
0P
1T
0J
1F
#202750
0O
1S
0K
1G
#203000
1R
0V
1H
0D
0N
0L
0%
#203250
1Q
0U
1I
0E
#203500
1P
0T
1J
0F
#203750
1O
0S
1K
0G
#204000
0R
1V
0H
1D
1N
1L
1%
#204250
0Q
1U
0I
1E
#204500
0P
1T
0J
1F
#204750
0O
1S
0K
1G
#205000
1R
0V
1H
0D
0N
0L
0%
#205250
1Q
0U
1I
0E
#205500
1P
0T
1J
0F
#205750
1O
0S
1K
0G
#206000
0R
1V
0H
1D
1N
1L
1%
#206250
0Q
1U
0I
1E
#206500
0P
1T
0J
1F
#206750
0O
1S
0K
1G
#207000
1R
0V
1H
0D
0N
0L
0%
#207250
1Q
0U
1I
0E
#207500
1P
0T
1J
0F
#207750
1O
0S
1K
0G
#208000
0R
1V
0H
1D
1N
1L
1%
#208250
0Q
1U
0I
1E
#208500
0P
1T
0J
1F
#208750
0O
1S
0K
1G
#209000
1R
0V
1H
0D
0N
0L
0%
#209250
1Q
0U
1I
0E
#209500
1P
0T
1J
0F
#209750
1O
0S
1K
0G
#210000
1!
1-
1.
15
1M
0R
1V
0H
1D
1N
1L
1%
#210250
0Q
1U
0I
1E
#210500
0P
1T
0J
1F
#210750
0O
1S
0K
1G
#211000
1R
0V
1H
0D
0N
0L
0%
#211250
1Q
0U
1I
0E
#211500
1P
0T
1J
0F
#211750
1O
0S
1K
0G
#212000
0R
1V
0H
1D
1N
1L
1%
#212250
0Q
1U
0I
1E
#212500
0P
1T
0J
1F
#212750
0O
1S
0K
1G
#213000
1R
0V
1H
0D
0N
0L
0%
#213250
1Q
0U
1I
0E
#213500
1P
0T
1J
0F
#213750
1O
0S
1K
0G
#214000
0R
1V
0H
1D
1N
1L
1%
#214250
0Q
1U
0I
1E
#214500
0P
1T
0J
1F
#214750
0O
1S
0K
1G
#215000
1R
0V
1H
0D
0N
0L
0%
#215250
1Q
0U
1I
0E
#215500
1P
0T
1J
0F
#215750
1O
0S
1K
0G
#216000
0R
1V
0H
1D
1N
1L
1%
#216250
0Q
1U
0I
1E
#216500
0P
1T
0J
1F
#216750
0O
1S
0K
1G
#217000
1R
0V
1H
0D
0N
0L
0%
#217250
1Q
0U
1I
0E
#217500
1P
0T
1J
0F
#217750
1O
0S
1K
0G
#218000
0R
1V
0H
1D
1N
1L
1%
#218250
0Q
1U
0I
1E
#218500
0P
1T
0J
1F
#218750
0O
1S
0K
1G
#219000
1R
0V
1H
0D
0N
0L
0%
